{
    "index": {
        "download_fdroid": "הורדת F-Droid", 
        "gpg_signature": "חתימת PGP", 
        "introduction": "F-Droid הוא קטלוג בר התקנה של יישומוני תכנה חופשית (FOSS) לפלטפורמת Android. הלקוח מקל על העיון, ההתקנה ושמירה על עדכונים להתקן שלך.", 
        "screenshot": "צילום מסך של יישומון F-Droid ל־Android", 
        "title": "מה זה F-Droid?"
    }, 
    "navigation": {
        "about": "על אודות", 
        "browse": "עיון", 
        "contribute": "תרומה", 
        "documentation": "מסמכים", 
        "forum": "פורום", 
        "issues": "בעיות", 
        "news": "חדשות", 
        "repomaker": "מייצר מאגרים", 
        "tutorials": "מדריכים"
    }, 
    "package": {
        "author": "יוצר", 
        "build_metadata": "נתונים על הבנייה", 
        "changelog": "יומן שינויים", 
        "donate": "תרומה", 
        "download": "הורדת [file_extension]", 
        "flattr": "Flattr", 
        "gpg_signature": "חתימת PGP", 
        "issue_tracker": "עוקב תקלות", 
        "liberapay": "Liberapay", 
        "license": "רשיון", 
        "minimum_android_version": "גרסה זו דורשת Android בגרסה [android_version]  ומעלה.", 
        "new_in_version": "חדש בגרסה [latest_version]", 
        "packages": "חבילות", 
        "permissions": "הרשאות", 
        "signed_by_developer": "היא נבנתה ונחתמה על ידי המפתח המקורי.", 
        "signed_by_fdroid": "היא נבנתה ונחתמה על ידי F-Droid, לצד ההבטחה שהיא תישאר נאמנה ל<a href=\"[source_code_url]\">קובץ איסוף המקור הזה</a>.", 
        "source_code": "קוד מקור", 
        "suggest_downloading_via_fdroid": "למרות שניתן להוריד קובצי APK להלן כדי להעניק לך בחירה, ראוי לזכור שהתקנה בדרך זו לא תבטיח התרעות על עדכונים והיא פחות מאובטחת מבחינת הורדה. אנו ממליצים להתקין דרך לקוח ה־F-Droid ולהשתמש בו.", 
        "technical_info": "פירוט טכני", 
        "version_info": "<b>גרסה [package_version]</b> ([package_version_code]) - נוספה ב־[package_added_date]", 
        "website": "אתר"
    }, 
    "sidebars": {
        "donate": {
            "bank_transfer_name": "שם", 
            "bitcoin_alt": "תרומת ביטקוין", 
            "flattr_alt": "תרומה דרך Flattr", 
            "heading": "תרומה", 
            "liberapay_alt": "תרומה דרך Liberapay", 
            "paypal_alt": "תרומה דרך Paypal", 
            "powered_by_donations": "F-Droid נתמכת על ידי התרומות שלך!", 
            "via_bank_transfer": "העברה בנקאית"
        }, 
        "last_updated": {
            "heading": "עדכון אחרון"
        }, 
        "latest_packages": {
            "heading": "יישומונים עדכניים"
        }, 
        "news": {
            "heading": "חדשות"
        }, 
        "search": {
            "heading": "חיפוש יישומונים", 
            "noscript": "נדרשת הפעלה של JavaScript"
        }
    }
}