{
    "index": {
        "download_fdroid": "下載 F-Droid", 
        "gpg_signature": "PGP 簽章", 
        "introduction": "F-Droid 是一個可在 Android 平台上安裝的自由與開源（FOSS）的應用程式目錄。用戶端可以輕鬆的瀏覽、安裝和持續追蹤裝置上應用程式的更新。", 
        "screenshot": "F-Droid Android 應用程式螢幕快照", 
        "title": "F-Droid 是什麼？"
    }, 
    "navigation": {
        "about": "關於", 
        "browse": "瀏覽", 
        "contribute": "貢獻", 
        "documentation": "文件", 
        "forum": "論壇", 
        "issues": "問題", 
        "news": "新聞", 
        "repomaker": "軟體製作", 
        "tutorials": "教學"
    }, 
    "package": {
        "author": "作者", 
        "build_metadata": "構建中介資料", 
        "changelog": "更新日誌", 
        "donate": "捐款", 
        "download": "下載 [file_extension]", 
        "flattr": "Flattr", 
        "gpg_signature": "PGP 簽章", 
        "issue_tracker": "問題追蹤系統", 
        "liberapay": "Liberapay", 
        "license": "授權條款", 
        "minimum_android_version": "此版本需要 Android [android_version] 或更高的版本。", 
        "new_in_version": "新版本 [latest_version]", 
        "packages": "套件包", 
        "permissions": "權限", 
        "signed_by_developer": "此套件包由原始開發者構建和簽署。", 
        "signed_by_fdroid": "此套件包由 F-Droid 構建，並保證對應於<a href=\"[source_code_url]\">此原始碼 tarball</a>。", 
        "source_code": "原始碼", 
        "suggest_downloading_via_fdroid": "雖然在下方可選擇下載 APK 檔案，但要留意這樣的安裝方式將不會收到更新通知，是一種較不安全的下載方法。建議您先安裝 F-Droid 用戶端使用。", 
        "technical_info": "技術資訊", 
        "version_info": "<b>版本 [package_version]</b> ([package_version_code]) - 於 [package_added_date] 新增", 
        "website": "網站"
    }, 
    "sidebars": {
        "donate": {
            "bank_transfer_name": "名稱", 
            "bitcoin_alt": "透過 Bitcoin 捐贈", 
            "flattr_alt": "透過 Flattr 捐贈", 
            "heading": "捐贈", 
            "liberapay_alt": "透過 Liberapay  捐款", 
            "paypal_alt": "透過 Paypal 捐贈", 
            "powered_by_donations": "F-Droid 的動力來自於您的捐贈！", 
            "via_bank_transfer": "銀行轉帳"
        }, 
        "last_updated": {
            "heading": "最近更新"
        }, 
        "latest_packages": {
            "heading": "最近新增"
        }, 
        "news": {
            "heading": "新聞"
        }, 
        "search": {
            "heading": "搜尋應用程式", 
            "noscript": "此功能需要啟動 JavaScript"
        }
    }
}