{
    "index": {
        "download_fdroid": "تنزيل أف-درويد", 
        "gpg_signature": "توقيع بي جي بي", 
        "introduction": "أف-درويد فهرس لتطبيقات البرمجيات الحرة ومفتوحة المصدر لمنصة أندرويد. يسمح التطبيق إكتشاف وتثبيت وتتبع التحديثات على جهازك.", 
        "screenshot": "لقطة شاشة لـ أف-درويد على نظام الأندرويد", 
        "title": "ما هو أف-درويد ؟"
    }, 
    "navigation": {
        "about": "عن المشروع", 
        "browse": "تَصَفّح", 
        "contribute": "المساهمة", 
        "documentation": "الوثائق", 
        "forum": "المنتدى", 
        "issues": "المشاكل", 
        "news": "الأخبار", 
        "repomaker": "مُطوِّر المستودعات"
    }, 
    "package": {
        "author": "المالك", 
        "build_metadata": "بناء البيانات الوصفية", 
        "changelog": "سجل التغييرات", 
        "donate": "تبرع", 
        "download": "نزِّل [file_extension]", 
        "flattr": "فلاتر", 
        "gpg_signature": "توقيع بي جي بي", 
        "issue_tracker": "مقتفي المشاكل", 
        "liberapay": "ليبر باي", 
        "license": "الرخصة", 
        "minimum_android_version": "يتطلب هذا الإصدار نظام أندرويد [android_version] أو أحدث.", 
        "new_in_version": "جديد في إصداره الـ  [latest_version]", 
        "packages": "الحزم", 
        "permissions": "التصريحات", 
        "signed_by_developer": "هو مُطوَّر و مُوَقَّع من قبل المُطوِّر الأصلي.", 
        "signed_by_fdroid": "مصمّمٌ و مُوقّع عليه من طرف أف-درويد و مضمون ليتوافق مع <a href=\"[source_code_url]\">حزمة tarball المصدرية</a>.", 
        "source_code": "الشيفرة المصدرية", 
        "suggest_downloading_via_fdroid": "على الرغم من تَوفّرحُزم APK أدناه لاعطيائك الخيار إلّا أنه يجب أن تكون على علم بأن عملية التثبيت بهذه الطريقة لن تمكِّنك من تلقي إخطارات التحديث وأنها وسيلة أقل أمنا للتنزيل. ننصحك بتثبيت تطبيق أف-درويد واستخدامه.", 
        "technical_info": "بيانات تقنية", 
        "version_info": "<b>الإصدار [package_version]</b> أضيف في ([package_version_code])-[package_added_date]", 
        "website": "الموقع"
    }, 
    "sidebars": {
        "donate": {
            "bank_transfer_name": "الإسم", 
            "bitcoin_alt": "تبرع بالبيتكوين", 
            "flattr_alt": "تبرع عبر فلاتر", 
            "heading": "تبرع", 
            "liberapay_alt": "تبرع عبر Liberapay", 
            "paypal_alt": "تبرع عبر بايبال", 
            "powered_by_donations": "إنَّ أف-درويد مدعوم بتبرعاتكم !", 
            "via_bank_transfer": "تحويل بنكي"
        }, 
        "last_updated": {
            "heading": "آخر تحديث"
        }, 
        "latest_packages": {
            "heading": "أحدث التطبيقات"
        }, 
        "news": {
            "heading": "الأخبار"
        }, 
        "search": {
            "heading": "إبحث عن تطبيقات", 
            "noscript": "تتطلب هذه الصفحة تفعيل جافا سكريبت في المتصفح الخاص بك"
        }
    }
}