{
    "index": {
        "download_fdroid": "Скачать F-Droid", 
        "gpg_signature": "PGP-подпись", 
        "introduction": "F-Droid это каталог бесплатных приложений с открытым исходным кодом для Android. Программа позволяет легко находить, устанавливать и следить за обновлениями приложений на вашем устройстве.", 
        "screenshot": "F-Droid приложение для создания скриншотов на Android", 
        "title": "Что такое F-Droid?"
    }, 
    "navigation": {
        "about": "О нас", 
        "browse": "Обзор", 
        "contribute": "Помочь", 
        "documentation": "Документация", 
        "forum": "Форум", 
        "issues": "Ошибки", 
        "news": "Новости", 
        "repomaker": "Repomaker"
    }, 
    "package": {
        "author": "Автор", 
        "build_metadata": "Метаданные сборки", 
        "changelog": "История изменений", 
        "donate": "Пожертвовать", 
        "download": "Скачать [file_extension]", 
        "flattr": "Flattr", 
        "gpg_signature": "PGP-подпись", 
        "issue_tracker": "Система отслеживания ошибок", 
        "license": "Лицензия", 
        "minimum_android_version": "Эта версия поддерживает Android [android_version]  и выше.", 
        "new_in_version": "Новое в версии [latest_version]", 
        "packages": "Пакеты", 
        "permissions": "Разрешения", 
        "signed_by_developer": "Приложение собрано и подписано разработчиком.", 
        "signed_by_fdroid": "Собрано и подписано F-Droid, и точно соответствует <a href=\"[source_code_url]\">исходному коду из архива</a>.", 
        "source_code": "Исходный Код", 
        "suggest_downloading_via_fdroid": "Несмотря на то, что для вашего выбора доступна загрузка APK, обратите внимание, что при такой установке вы не будете получать уведомления об обновлениях, и это менее безопасный способ скачивания. Мы рекомендуем вам установить приложение F-Droid и использовать его.", 
        "technical_info": "Техническая информация", 
        "version_info": "<b>Версия [package_version]</b> ([package_version_code]) - Добавлена [package_added_date]", 
        "website": "Веб-страница"
    }, 
    "sidebars": {
        "donate": {
            "bank_transfer_name": "Имя", 
            "bitcoin_alt": "Пожертвовать через Bitcoin", 
            "flattr_alt": "Пожертвовать через Flattr", 
            "heading": "Пожертвовать", 
            "paypal_alt": "Пожертвовать через PayPal", 
            "powered_by_donations": "F-Droid работает за счет ваших пожертвований!", 
            "via_bank_transfer": "Банковский Перевод"
        }, 
        "last_updated": {
            "heading": "Обновлено"
        }, 
        "latest_packages": {
            "heading": "Новые приложения"
        }, 
        "news": {
            "heading": "Новости"
        }, 
        "search": {
            "heading": "Поиск приложений", 
            "noscript": "Необходимо активировать JavaScript"
        }
    }
}