{
    "index": {
        "download_fdroid": "Elŝuti F-Droid", 
        "gpg_signature": "PGP-subskribo", 
        "introduction": "F-Droid estas instalebla katalogo de Libera kaj Malfermkoda Programaro (FOSS) por operaciumo Android. La kliento plifaciligas foliumadon, instaladon kaj spuradon de ĝisdatigoj ĉe via aparato.", 
        "screenshot": "Ekrankopio de F-Droid ĉe Android", 
        "title": "Kio estas F-Droid?"
    }, 
    "navigation": {
        "about": "Pri", 
        "browse": "Esplori", 
        "contribute": "Kontribui", 
        "documentation": "Dokumentaro", 
        "forum": "Forumo", 
        "issues": "Problemoj", 
        "news": "Novaĵoj", 
        "repomaker": "Deponej-farilo", 
        "tutorials": "Gvidiloj"
    }, 
    "package": {
        "author": "Aŭtoro", 
        "build_metadata": "Kompilaj metadatumoj", 
        "changelog": "Ŝanĝoprotokolo", 
        "donate": "Donaci", 
        "download": "Elŝuti [file_extension]", 
        "flattr": "Flattr", 
        "gpg_signature": "PGP-subskribo", 
        "issue_tracker": "Erar-spurilo", 
        "liberapay": "Liberapay", 
        "license": "Permesilo", 
        "minimum_android_version": "Tiu ĉi versio postulas Androidon de versio [android_version] aŭ posta.", 
        "new_in_version": "Novaj en versio [latest_version]", 
        "packages": "Pakaĵoj", 
        "permissions": "Permesoj", 
        "signed_by_developer": "Ĝi estas kompilita kaj subskribita de la programisto mem.", 
        "signed_by_fdroid": "Ĝi estas kompilita kaj subskribita de F-Droid kaj oni garantias identecon kun <a href=\"[source_code_url]\">tiu ĉi fontkoda pakaĵo</a>.", 
        "source_code": "Fontkodo", 
        "suggest_downloading_via_fdroid": "Kvankam APK-oj elŝuteblas sube, vi devus scii, ke per instali tiumaniere vi ne ricevos sciigojn pri ĝisdatigoj kaj tio estas malpli sekura maniero por elŝuti. Ni konsilas por ke vi instalu klienton F-Droid kaj uzu ĝin.", 
        "technical_info": "Teĥnikaj detaloj", 
        "version_info": "<b>Versio [package_version]</b> ([package_version_code]) - aldonita je [package_added_date]", 
        "website": "Retejo"
    }, 
    "sidebars": {
        "donate": {
            "bank_transfer_name": "Nomo", 
            "bitcoin_alt": "Donaci per Bitmono", 
            "flattr_alt": "Donaci per Flattr", 
            "heading": "Donaci", 
            "liberapay_alt": "Donaci per Liberapay", 
            "paypal_alt": "Donaci per PayPal", 
            "powered_by_donations": "F-Droid estas subtenata per viaj donacoj!", 
            "via_bank_transfer": "Ĝiro"
        }, 
        "last_updated": {
            "heading": "Laste ĝisdatigitaj"
        }, 
        "latest_packages": {
            "heading": "Plej novaj aplikaĵoj"
        }, 
        "news": {
            "heading": "Novaĵoj"
        }, 
        "search": {
            "heading": "Serĉi aplikaĵojn", 
            "noscript": "Postulas aktivan ĝavoskripton"
        }
    }
}